{
  "type": "service_account",
  "project_id": "credit9-io",
  "private_key_id": "8bb6231da552d0adce843613a9804602beac92f7",
  "private_key": "-----BEGIN PRIVATE KEY-----\nMIIEvQIBADANBgkqhkiG9w0BAQEFAASCBKcwggSjAgEAAoIBAQDQlr/FHnCcB7FQ\nNbjquiWiZ+LXL865myOVVpiAR9oHykL3qOAo1ou5ueMJV70YFrKAueOXISEvkp14\nSeru+x3phTEwJJE4Vk98qUGnBATubtz0lWdovddVS/j4nOmafpbn8a2jfGW/5Noh\no4RZCqBkkQ4Lf2kVo9XKymVg+pryGOHMEhkdaA2qW1kfdZNo9gRoebge3lIBrBJk\n+kNqCZqcmQnyk0VY2lQjgDKSLRaRDyLV6Vd2Eea77O8fSkPIerfYC5T9n8U87wkb\ngpPQlAMROh0Y26M+KRW0RzqvImYUWjTESXSFIm8pBtaWUAFqWrRcun0N1dwJuAB8\nT4dTKjE7AgMBAAECggEAA25XXTCw/YAK5Jzdm87QC6nVy2BX8CmjHjO8cm+8IGCt\nVVGLzmApEDcEiwTMcXb+HKvyGGxNFXE98dqVaLTsuwib1ITldp3E1PIbyFmCk0Fz\nlPpYJxroTdjgEYbTON1YMhyBlKzZJ5zmEaOU67oHBWB1cK751YdKXvmRTVUR82V5\nxxl9qA4VW1lj5eLhDqhXUcG1nmxkNDoRqbQGi3onW39YzmNEn3iBgzqsClcZ6ejM\nQGT+lauGDqLYcxeC2Lirn+Bx3RJlMurATz2D+b1IZ1wh7eGtQkfRUGbaQKhb6Von\n+2dzMi1BQcTdrEhPch5klmZYH7IaqUrfgXBtMG+zIQKBgQDpc4p2XSzSQ33UtqPq\nr5mUrsWm7qfXXWYO+bhl7HY1RSjodI8Rmb26XSuUAdwPsRpx/BiKvZIEV7Y+twYB\nnpDUn1UOKHmoOWAC8C1Z7xCcdMpMJ0O9QX0CFhuDIxU8VbiViIcH71jFOdirKKX2\n1NejIYxNkLkRxhrt2rzZkTv/mQKBgQDkvHGbvATAhgjqskCS/HjwaiRN82qTMUUW\n8jfVDzh7RbKNXqbfB4L1B1r3nVgXQhosh9PkT4JS6uLW5La8pYQqVaswgX7diI67\nmoN7mfiuLSuXeJLgxcv+qvR3i25ktR2+NbhOwG0urZuKnxA4jXngH2luLFDzQN/a\nCZqajfML8wKBgBbayONtm8W59cetWb7QEikMMy10j9n1utgceoD/9VKhwq9/OcJv\nWrO0C2AiDnk6zWv7UivDA1iJfb4GDQB7lZI7Rwhrzf06ILwo50e2r9mhVWy/K1KL\n5sEdiPP9q0aM3dVF2HJebEJit2OKRzUzASlnT2UIlhW3X0uJ7pMeNNGBAoGATu40\nKfBkl2bpNsvR+qbCuPt3kaqYsThERhnJaG07KVawuZXa8YVvDEzAeEfEeSonTAyG\n8vb42tIQ+uSrpkdbZxxu2WsmMx4HWveDvagxJzGRJFDIJmY68aNefs4PhxL0s4lo\nE0zVoFDqJpijCVDQqKVORWVnfbl6RYwg3Ip1Pz8CgYEA1sfyIyB29GsYZFdqZZpO\n5l1+QsnKosZhitX9nMT4JasP0mvszg1FHkfnRxt1TZALS76bcf44dvlUz43cNRJe\nwP6pDhj9NCBbLA/lTHlyqm9KiQK3wmhL1iMle4OFUhrthA7ijZ7mcu83Hn5a3Fss\n1sXnRofo+C/oi5oiEIuTXqw=\n-----END PRIVATE KEY-----\n",
  "client_email": "nopadol-erp@credit9-io.iam.gserviceaccount.com",
  "client_id": "117072970668818741911",
  "auth_uri": "https://accounts.google.com/o/oauth2/auth",
  "token_uri": "https://oauth2.googleapis.com/token",
  "auth_provider_x509_cert_url": "https://www.googleapis.com/oauth2/v1/certs",
  "client_x509_cert_url": "https://www.googleapis.com/robot/v1/metadata/x509/nopadol-erp%40credit9-io.iam.gserviceaccount.com"
}
